{"data":[{"guid":"b81563eb-bca5-4502-a6b1-5cca5faac0de","slug":"loando-direct-php-deweloper-deweloperka-olsztyn-php","title":"PHP Deweloper/Deweloperka","requiredSkills":null,"niceToHaveSkills":null,"workplaceType":"office","workingTime":"full_time","experienceLevel":"mid","employmentTypes":[{"from":null,"to":null,"currency":"pln","type":"b2b","unit":"month","gross":false,"fromChf":null,"fromEur":null,"fromGbp":null,"fromPln":null,"fromUsd":null,"toChf":null,"toEur":null,"toGbp":null,"toPln":null,"toUsd":null}],"categoryId":3,"multilocation":[{"city":"Olsztyn","slug":"loando-direct-php-deweloper-deweloperka-olsztyn-php","street":"Marka Kotańskiego 8","latitude":53.7808682,"longitude":20.4700204}],"city":"Olsztyn","street":"Marka Kotańskiego 8","latitude":"53.7808682","longitude":"20.4700204","remoteInterview":true,"companyName":"LOANDO DIRECT","companyLogoThumbUrl":"https://imgproxy.justjoinit.tech/SGhFR8r0Bfaf-jlF0xJkeqtx94CAiaPmYdXKRXS0CzU/h:200/w:200/plain/https://s3.eu-west-1.amazonaws.com/images.justjoin.it/justjoinit/company-logos/1774449680_019d25715fd47d17b989a8e8c8dbc386.jpeg","publishedAt":"2026-03-30T12:51:34.055Z","lastPublishedAt":"2026-03-30T12:51:34.055Z","expiredAt":"2026-04-29T12:51:34.055Z","openToHireUkrainians":false,"languages":[{"code":"pl","level":"c1"},{"code":"en","level":"b1"}],"applyMethod":"form","isSuperOffer":false,"promotedPosition":null,"promotedKeyFilters":[]},{"guid":"5b5e1987-dce7-4ffe-8719-05ee494bc56b","slug":"editshare-lead-ui-product-engineer-warszawa-ux","title":"Lead UI/Product Engineer","requiredSkills":null,"niceToHaveSkills":null,"workplaceType":"remote","workingTime":"full_time","experienceLevel":"senior","employmentTypes":[{"from":26250,"to":29500,"currency":"pln","type":"permanent","unit":"month","gross":true,"fromChf":5710.5825,"fromEur":6178.12125,"fromGbp":5351.745,"fromPln":26250,"fromUsd":7236.83625,"toChf":6417.607,"toEur":6943.0315,"toGbp":6014.342,"toPln":29500,"toUsd":8132.8255}],"categoryId":14,"multilocation":[{"city":"Warszawa","slug":"editshare-lead-ui-product-engineer-warszawa-ux","street":"02-390","latitude":52.2004423,"longitude":20.9663009}],"city":"Warszawa","street":"02-390","latitude":"52.2004423","longitude":"20.9663009","remoteInterview":true,"companyName":"EditShare","companyLogoThumbUrl":"https://imgproxy.justjoinit.tech/4L6AvRhYxn06-Fj2F47CSMKjwsQHAb7XHb9H0u63f0U/h:200/w:200/plain/https://public.justjoin.it/companies/logos/original/55fcd59505a47dffdf1ac2057ca56ff6e9d3cddd.png","publishedAt":"2026-03-30T13:17:33.553Z","lastPublishedAt":"2026-03-30T13:17:33.553Z","expiredAt":"2026-04-29T13:17:33.553Z","openToHireUkrainians":false,"languages":[{"code":"en","level":"c1"},{"code":"pl","level":"c1"}],"applyMethod":"external","isSuperOffer":false,"promotedPosition":null,"promotedKeyFilters":[]},{"guid":"9800f13b-540c-4677-91f3-2b5eda80f0c2","slug":"neontri-starszy-analityk-systemowy-warszawa-analytics","title":"Senior System Analyst (K/M)","requiredSkills":["UML","REST API","BPMN","Enterprise Architect"],"niceToHaveSkills":null,"workplaceType":"remote","workingTime":"full_time","experienceLevel":"senior","employmentTypes":[{"from":120,"to":150,"currency":"pln","type":"b2b","unit":"hour","gross":false,"fromChf":26.10552,"fromEur":28.24284,"fromGbp":24.46512,"fromPln":120,"fromUsd":33.08268,"toChf":32.6319,"toEur":35.30355,"toGbp":30.5814,"toPln":150,"toUsd":41.35335}],"categoryId":17,"multilocation":[{"city":"Warszawa","slug":"neontri-starszy-analityk-systemowy-warszawa-analytics","street":"centrum","latitude":52.23584,"longitude":21.011959}],"city":"Warszawa","street":"centrum","latitude":"52.2358400","longitude":"21.0119590","remoteInterview":true,"companyName":"Neontri","companyLogoThumbUrl":"https://imgproxy.justjoinit.tech/1n3a3gFR54qo8bGUM7SET6cyqNvBtSXUzojomaz72W8/h:200/w:200/plain/https://neontri.traffit.com/api/file/publicFileContent/1329","publishedAt":"2026-04-26T11:00:14.570Z","lastPublishedAt":"2026-04-28T10:40:45.098Z","expiredAt":"2026-07-27T21:59:59.999Z","openToHireUkrainians":false,"languages":[],"applyMethod":"external","isSuperOffer":false,"promotedPosition":3,"promotedKeyFilters":["analytics"]},{"guid":"70a1c938-63cb-48ba-a728-ba705c1b2a02","slug":"sunflower-gaming-mid-level-designer---igaming-gzira-ux","title":"Mid-Level Designer – iGaming","requiredSkills":null,"niceToHaveSkills":null,"workplaceType":"remote","workingTime":"full_time","experienceLevel":"mid","employmentTypes":[{"from":null,"to":null,"currency":"eur","type":"b2b","unit":"month","gross":false,"fromChf":null,"fromEur":null,"fromGbp":null,"fromPln":null,"fromUsd":null,"toChf":null,"toEur":null,"toGbp":null,"toPln":null,"toUsd":null}],"categoryId":14,"multilocation":[{"city":"Gżira","slug":"sunflower-gaming-mid-level-designer---igaming-gzira-ux","street":"Soho The Strand Fawwara Building Triq L- Imsida","latitude":35.9023513,"longitude":14.4938964}],"city":"Gżira","street":"Soho The Strand Fawwara Building Triq L- Imsida","latitude":"35.9023513","longitude":"14.4938964","remoteInterview":true,"companyName":"Sunflower Gaming","companyLogoThumbUrl":"https://imgproxy.justjoinit.tech/qs9k-aE9Np86Z6hjhmcye2AJJnXDltNmZnrVgckxiI8/h:200/w:200/plain/https://s3.eu-west-1.amazonaws.com/images.justjoin.it/justjoinit/company-logos/a1dff918-28aa-4651-aa0c-ba5d81b1870c.png","publishedAt":"2026-03-30T14:44:48.931Z","lastPublishedAt":"2026-03-30T14:44:48.931Z","expiredAt":"2026-04-29T14:44:48.931Z","openToHireUkrainians":true,"languages":[],"applyMethod":"form","isSuperOffer":false,"promotedPosition":null,"promotedKeyFilters":[]},{"guid":"5bcf985b-dce8-4b0d-a363-564bbb3c3a8a","slug":"magma-math-node-js-backend-developer-warszawa-javascript-66d5c156","title":"Node.js Backend Developer","requiredSkills":["Node.js","TypeScript","RabbitMQ","AWS","Microservices","MongoDB","Redis","Nest.js"],"niceToHaveSkills":null,"workplaceType":"hybrid","workingTime":"full_time","experienceLevel":"senior","employmentTypes":[{"from":24000,"to":27000,"currency":"pln","type":"b2b","unit":"month","gross":false,"fromChf":5221.104,"fromEur":5648.568,"fromGbp":4893.024,"fromPln":24000,"fromUsd":6616.536,"toChf":5873.742,"toEur":6354.639,"toGbp":5504.652,"toPln":27000,"toUsd":7443.603}],"categoryId":1,"multilocation":[{"city":"Warszawa","slug":"magma-math-node-js-backend-developer-warszawa-javascript-66d5c156","street":"Tadeusza Czackiego 15","latitude":52.237502,"longitude":21.0147724}],"city":"Warszawa","street":"Tadeusza Czackiego 15","latitude":"52.2375020","longitude":"21.0147724","remoteInterview":true,"companyName":"Magma Math","companyLogoThumbUrl":"https://imgproxy.justjoinit.tech/ROnd8UQv9g9AhkPgrae0WVW7hhhj-uCMmu-l_aU3WRo/h:200/w:200/plain/https://public.justjoin.it/companies/logos/original/65cf894774f7ee4b7c49c54fcc8a8281719768f7.png","publishedAt":"2026-03-30T15:21:33.020Z","lastPublishedAt":"2026-04-29T10:29:52.854Z","expiredAt":"2026-05-29T15:21:33.020Z","openToHireUkrainians":false,"languages":[{"code":"en","level":"b2"}],"applyMethod":"external","isSuperOffer":false,"promotedPosition":null,"promotedKeyFilters":[]},{"guid":"7ac01ed3-059c-48d6-b2a0-6893945b7e37","slug":"hut42-sp-z-o-o--junior-quality-assurance-engineer-lodz-testing-9b493858","title":"Junior Quality Assurance Engineer","requiredSkills":null,"niceToHaveSkills":null,"workplaceType":"hybrid","workingTime":"full_time","experienceLevel":"junior","employmentTypes":[{"from":6480,"to":6480,"currency":"pln","type":"permanent","unit":"month","gross":true,"fromChf":1409.69808,"fromEur":1525.11336,"fromGbp":1321.11648,"fromPln":6480,"fromUsd":1786.46472,"toChf":1409.69808,"toEur":1525.11336,"toGbp":1321.11648,"toPln":6480,"toUsd":1786.46472}],"categoryId":11,"multilocation":[{"city":"Łódź","slug":"hut42-sp-z-o-o--junior-quality-assurance-engineer-lodz-testing-9b493858","street":"Zachodnia","latitude":51.7798666,"longitude":19.4513315}],"city":"Łódź","street":"Zachodnia","latitude":"51.7798666","longitude":"19.4513315","remoteInterview":true,"companyName":"HUT42 Sp. z o.o.","companyLogoThumbUrl":"https://imgproxy.justjoinit.tech/Z3yHTDpHRggHLbDM8EF0IQI2vRD7HW2HSiWiK-VVVXg/h:200/w:200/plain/https://public.justjoin.it/companies/logos/original/80e0d3ccfa67aacc5e4a18d33a49e56aa0ba3086.png","publishedAt":"2026-03-30T15:56:32.262Z","lastPublishedAt":"2026-03-30T15:56:32.262Z","expiredAt":"2026-04-29T15:56:32.262Z","openToHireUkrainians":false,"languages":[{"code":"en","level":"c1"},{"code":"pl","level":"c1"}],"applyMethod":"form","isSuperOffer":false,"promotedPosition":null,"promotedKeyFilters":[]},{"guid":"97f9e831-5ef5-4220-b274-ac10fb870360","slug":"sanmargar-team-fullstack-developer-java-js--warszawa-java","title":"Fullstack Developer  (Java + JS)","requiredSkills":null,"niceToHaveSkills":null,"workplaceType":"hybrid","workingTime":"full_time","experienceLevel":"mid","employmentTypes":[{"from":null,"to":null,"currency":"pln","type":"b2b","unit":"month","gross":false,"fromChf":null,"fromEur":null,"fromGbp":null,"fromPln":null,"fromUsd":null,"toChf":null,"toEur":null,"toGbp":null,"toPln":null,"toUsd":null}],"categoryId":6,"multilocation":[{"city":"Warszawa","slug":"sanmargar-team-fullstack-developer-java-js--warszawa-java","street":"Resorowa 20","latitude":52.1718194,"longitude":21.068361}],"city":"Warszawa","street":"Resorowa 20","latitude":"52.1718194","longitude":"21.0683610","remoteInterview":false,"companyName":"Sanmargar Team","companyLogoThumbUrl":"https://imgproxy.justjoinit.tech/MwgGWjp9CKqsV4vb2Iy6TJYwX84K1aUwNOrWIPVDPyg/h:200/w:200/plain/https://s3.eu-west-1.amazonaws.com/images.justjoin.it/justjoinit/company-logos/7ac833a0-3f1c-4ab5-891e-ecec594c7500.jpg","publishedAt":"2026-03-31T06:49:18.313Z","lastPublishedAt":"2026-03-31T06:49:18.313Z","expiredAt":"2026-04-30T06:49:18.313Z","openToHireUkrainians":false,"languages":[{"code":"pl","level":"b2"},{"code":"en","level":"b2"}],"applyMethod":"form","isSuperOffer":false,"promotedPosition":null,"promotedKeyFilters":[]},{"guid":"0194f93f-c154-4e9e-9e32-9ea86fdf0db8","slug":"vsi-voice-script-international-senior-full-stack-developer-integrations-middleware--warszawa-devops","title":"Senior Full Stack Developer (Integrations & Middleware)","requiredSkills":null,"niceToHaveSkills":null,"workplaceType":"remote","workingTime":"full_time","experienceLevel":"senior","employmentTypes":[{"from":null,"to":null,"currency":"pln","type":"permanent","unit":"month","gross":true,"fromChf":null,"fromEur":null,"fromGbp":null,"fromPln":null,"fromUsd":null,"toChf":null,"toEur":null,"toGbp":null,"toPln":null,"toUsd":null}],"categoryId":12,"multilocation":[{"city":"Warszawa","slug":"vsi-voice-script-international-senior-full-stack-developer-integrations-middleware--warszawa-devops","street":"Łowcza 22","latitude":52.1746395,"longitude":21.0730754}],"city":"Warszawa","street":"Łowcza 22","latitude":"52.1746395","longitude":"21.0730754","remoteInterview":true,"companyName":"VSI / Voice & Script International","companyLogoThumbUrl":"https://imgproxy.justjoinit.tech/WsEZJzNqENu8NalBQC7SpYrlEzSfkRbS_QqLZ2T6ByE/h:200/w:200/plain/https://s3.eu-west-1.amazonaws.com/images.justjoin.it/justjoinit/company-logos/afd2d3cf-d7d6-4b3b-b2f2-3cd2a1e9c773.png","publishedAt":"2026-03-31T10:37:45.276Z","lastPublishedAt":"2026-03-31T10:37:45.276Z","expiredAt":"2026-04-30T10:37:45.276Z","openToHireUkrainians":false,"languages":[{"code":"en","level":"c1"},{"code":"pl","level":"c1"}],"applyMethod":"form","isSuperOffer":false,"promotedPosition":null,"promotedKeyFilters":[]},{"guid":"ff3f5e82-91b3-4e84-b50d-eeb6f0ecf407","slug":"motocontroler-junior-product-engineer-web-mobile-ai-assisted--krakow-pm","title":"Junior Product Engineer (Web & Mobile, AI-assisted)","requiredSkills":null,"niceToHaveSkills":null,"workplaceType":"office","workingTime":"full_time","experienceLevel":"junior","employmentTypes":[{"from":5000,"to":7000,"currency":"pln","type":"mandate_contract","unit":"month","gross":true,"fromChf":1087.73,"fromEur":1176.785,"fromGbp":1019.38,"fromPln":5000,"fromUsd":1378.445,"toChf":1522.822,"toEur":1647.499,"toGbp":1427.132,"toPln":7000,"toUsd":1929.823}],"categoryId":15,"multilocation":[{"city":"Kraków","slug":"motocontroler-junior-product-engineer-web-mobile-ai-assisted--krakow-pm","street":"Płk. Stanisława Dąbka 8/402","latitude":50.0341101,"longitude":20.0121547}],"city":"Kraków","street":"Płk. Stanisława Dąbka 8/402","latitude":"50.0341101","longitude":"20.0121547","remoteInterview":false,"companyName":"MOTOCONTROLER","companyLogoThumbUrl":"https://imgproxy.justjoinit.tech/78kcFmJcSiFQuBFh9eb15mytqfQhd51h6maJN0uWhTw/h:200/w:200/plain/https://s3.eu-west-1.amazonaws.com/images.justjoin.it/justjoinit/company-logos/46fbc63e-eb11-4532-9fda-6d22492cff83.png","publishedAt":"2026-03-31T19:13:18.685Z","lastPublishedAt":"2026-03-31T19:13:18.685Z","expiredAt":"2026-04-30T19:13:18.685Z","openToHireUkrainians":true,"languages":[{"code":"pl","level":"c2"},{"code":"en","level":"c2"}],"applyMethod":"form","isSuperOffer":false,"promotedPosition":null,"promotedKeyFilters":[]},{"guid":"9fafc3bd-f3b7-4523-9aa7-da632a492b0c","slug":"grafik-optymalny-senior-net-developer-azure--warszawa-net","title":"Senior .NET Developer (Azure)","requiredSkills":null,"niceToHaveSkills":null,"workplaceType":"remote","workingTime":"full_time","experienceLevel":"senior","employmentTypes":[{"from":18000,"to":27000,"currency":"pln","type":"b2b","unit":"month","gross":false,"fromChf":3915.828,"fromEur":4236.426,"fromGbp":3669.768,"fromPln":18000,"fromUsd":4962.402,"toChf":5873.742,"toEur":6354.639,"toGbp":5504.652,"toPln":27000,"toUsd":7443.603}],"categoryId":7,"multilocation":[{"city":"Warszawa","slug":"grafik-optymalny-senior-net-developer-azure--warszawa-net","street":"Bolesława Prusa 11","latitude":52.164108,"longitude":20.8070855}],"city":"Warszawa","street":"Bolesława Prusa 11","latitude":"52.1641080","longitude":"20.8070855","remoteInterview":true,"companyName":"Grafik Optymalny","companyLogoThumbUrl":"https://imgproxy.justjoinit.tech/y1ey2VeJtz6rXt5jhQO7-_jX0CeEdDFKkktIalVwBrI/h:200/w:200/plain/https://s3.eu-west-1.amazonaws.com/images.justjoin.it/justjoinit/company-logos/75d54d48-8fa1-44e4-a841-f09b8495a23e.png","publishedAt":"2026-04-01T10:55:39.151Z","lastPublishedAt":"2026-04-01T10:55:39.151Z","expiredAt":"2026-05-01T10:55:39.151Z","openToHireUkrainians":false,"languages":[{"code":"pl","level":"c2"},{"code":"en","level":"b2"}],"applyMethod":"form","isSuperOffer":false,"promotedPosition":null,"promotedKeyFilters":[]}],"meta":{"page":1,"totalItems":10716,"totalPages":536,"prevPage":null,"nextPage":2}}